<svg width="145" height="163" viewBox="0 0 145 163" fill="none" xmlns="http://www.w3.org/2000/svg">
<g clip-path="url(#clip0_2_2)">
<path d="M45.7847 14.3115L41.5011 9.99499C41.2977 9.7895 41.1835 9.5111 41.1835 9.22086C41.1835 8.93062 41.2977 8.65223 41.5011 8.44674L49.0922 0.797252C49.2962 0.592281 49.5724 0.477173 49.8604 0.477173C50.1485 0.477173 50.4247 0.592281 50.6287 0.797252L54.9123 5.1138C55.1159 5.31917 55.2303 5.59761 55.2303 5.88793C55.2303 6.17824 55.1159 6.45668 54.9123 6.66205L47.3212 14.3115C47.1172 14.5165 46.841 14.6316 46.5529 14.6316C46.2649 14.6316 45.9887 14.5165 45.7847 14.3115V14.3115ZM50.4569 0.976005C50.2986 0.816891 50.0841 0.727539 49.8604 0.727539C49.6368 0.727539 49.4223 0.816891 49.264 0.976005L41.6729 8.62644C41.515 8.786 41.4263 9.00214 41.4263 9.22748C41.4263 9.45282 41.515 9.66897 41.6729 9.82853L45.9584 14.1404C46.1167 14.2995 46.3312 14.3888 46.5548 14.3888C46.7784 14.3888 46.9929 14.2995 47.1513 14.1404L54.7433 6.49086C54.9012 6.3313 54.9899 6.11516 54.9899 5.88982C54.9899 5.66448 54.9012 5.44834 54.7433 5.28877L50.4569 0.976005Z" fill="#204289"/>
<path d="M43.4907 9.74996C43.3211 9.57907 43.2055 9.36134 43.1587 9.1243C43.1119 8.88726 43.1359 8.64156 43.2277 8.41826C43.3195 8.19496 43.4749 8.00411 43.6743 7.86983C43.8737 7.73555 44.1082 7.66388 44.348 7.66388C44.5879 7.66388 44.8223 7.73555 45.0218 7.86983C45.2212 8.00411 45.3766 8.19496 45.4684 8.41826C45.5602 8.64156 45.5842 8.88726 45.5373 9.1243C45.4905 9.36134 45.375 9.57907 45.2054 9.74996C44.9779 9.97884 44.6695 10.1074 44.348 10.1074C44.0265 10.1074 43.7182 9.97884 43.4907 9.74996V9.74996ZM45.0337 8.19415C44.898 8.05734 44.725 7.96416 44.5368 7.92639C44.3485 7.88863 44.1533 7.90797 43.976 7.98198C43.7986 8.05598 43.6471 8.18133 43.5404 8.34216C43.4337 8.50299 43.3768 8.69208 43.3768 8.88551C43.3768 9.07895 43.4337 9.26804 43.5404 9.42887C43.6471 9.5897 43.7986 9.71504 43.976 9.78905C44.1533 9.86306 44.3485 9.8824 44.5368 9.84463C44.725 9.80687 44.898 9.71369 45.0337 9.57688C45.2153 9.39337 45.3174 9.14473 45.3174 8.88551C45.3174 8.62629 45.2153 8.37766 45.0337 8.19415V8.19415Z" fill="#204289"/>
<path d="M46.0789 7.14066C45.9093 6.96977 45.7938 6.75204 45.747 6.515C45.7002 6.27796 45.7242 6.03226 45.8159 5.80896C45.9077 5.58567 46.0631 5.39481 46.2625 5.26053C46.462 5.12625 46.6964 5.05458 46.9363 5.05458C47.1761 5.05458 47.4106 5.12625 47.61 5.26053C47.8094 5.39481 47.9648 5.58567 48.0566 5.80896C48.1484 6.03226 48.1724 6.27796 48.1256 6.515C48.0788 6.75204 47.9632 6.96977 47.7936 7.14066C47.5661 7.36954 47.2578 7.49809 46.9363 7.49809C46.6148 7.49809 46.3064 7.36954 46.0789 7.14066V7.14066ZM47.6228 5.58579C47.4871 5.44899 47.3142 5.35581 47.1259 5.31804C46.9377 5.28027 46.7425 5.29962 46.5652 5.37362C46.3878 5.44763 46.2362 5.57297 46.1296 5.7338C46.0229 5.89463 45.966 6.08372 45.966 6.27716C45.966 6.47059 46.0229 6.65968 46.1296 6.82051C46.2362 6.98134 46.3878 7.10669 46.5652 7.18069C46.7425 7.2547 46.9377 7.27404 47.1259 7.23628C47.3142 7.19851 47.4871 7.10533 47.6228 6.96852C47.8045 6.78501 47.9065 6.53638 47.9065 6.27716C47.9065 6.01794 47.8045 5.7693 47.6228 5.58579V5.58579Z" fill="#204289"/>
<path d="M48.6686 4.53215C48.499 4.36127 48.3835 4.14354 48.3367 3.9065C48.2899 3.66946 48.3139 3.42375 48.4057 3.20046C48.4974 2.97716 48.6529 2.78631 48.8523 2.65203C49.0517 2.51775 49.2862 2.44608 49.526 2.44608C49.7658 2.44608 50.0003 2.51775 50.1997 2.65203C50.3991 2.78631 50.5546 2.97716 50.6463 3.20046C50.7381 3.42375 50.7621 3.66946 50.7153 3.9065C50.6685 4.14354 50.553 4.36127 50.3834 4.53215C50.1557 4.76081 49.8474 4.8892 49.526 4.8892C49.2046 4.8892 48.8963 4.76081 48.6686 4.53215ZM50.2116 2.97634C50.076 2.83986 49.9032 2.74695 49.7152 2.70938C49.5271 2.6718 49.3323 2.69124 49.1552 2.76523C48.9781 2.83922 48.8268 2.96444 48.7203 3.12507C48.6139 3.28571 48.557 3.47454 48.557 3.66771C48.557 3.86088 48.6139 4.04971 48.7203 4.21034C48.8268 4.37098 48.9781 4.4962 49.1552 4.57019C49.3323 4.64418 49.5271 4.66362 49.7152 4.62604C49.9032 4.58846 50.076 4.49556 50.2116 4.35908C50.3935 4.17569 50.4957 3.92701 50.4957 3.66771C50.4957 3.40841 50.3935 3.15973 50.2116 2.97634V2.97634Z" fill="#204289"/>
<path d="M48.6515 9.73305C48.4819 9.56217 48.3664 9.34444 48.3196 9.1074C48.2727 8.87035 48.2967 8.62465 48.3885 8.40135C48.4803 8.17806 48.6357 7.9872 48.8351 7.85292C49.0346 7.71865 49.269 7.64697 49.5089 7.64697C49.7487 7.64697 49.9832 7.71865 50.1826 7.85292C50.382 7.9872 50.5374 8.17806 50.6292 8.40135C50.721 8.62465 50.745 8.87035 50.6982 9.1074C50.6514 9.34444 50.5359 9.56217 50.3663 9.73305C50.1387 9.96193 49.8304 10.0905 49.5089 10.0905C49.1874 10.0905 48.879 9.96193 48.6515 9.73305V9.73305ZM50.1954 8.17818C50.0598 8.04157 49.8871 7.94853 49.699 7.91085C49.5109 7.87316 49.316 7.89252 49.1389 7.96647C48.9617 8.04042 48.8103 8.16564 48.7038 8.32631C48.5972 8.48697 48.5404 8.67586 48.5404 8.86908C48.5404 9.0623 48.5972 9.25119 48.7038 9.41185C48.8103 9.57251 48.9617 9.69774 49.1389 9.77169C49.316 9.84564 49.5109 9.865 49.699 9.82731C49.8871 9.78963 50.0598 9.69659 50.1954 9.55997C50.3768 9.3765 50.4787 9.12807 50.4787 8.86908C50.4787 8.61009 50.3768 8.36166 50.1954 8.17818V8.17818Z" fill="#204289"/>
<path d="M46.0634 12.3424C45.8938 12.1716 45.7783 11.9538 45.7315 11.7168C45.6847 11.4797 45.7087 11.234 45.8004 11.0107C45.8922 10.7874 46.0476 10.5966 46.2471 10.4623C46.4465 10.328 46.6809 10.2564 46.9208 10.2564C47.1606 10.2564 47.3951 10.328 47.5945 10.4623C47.7939 10.5966 47.9493 10.7874 48.0411 11.0107C48.1329 11.234 48.1569 11.4797 48.1101 11.7168C48.0633 11.9538 47.9478 12.1716 47.7782 12.3424C47.5506 12.5713 47.2423 12.6999 46.9208 12.6999C46.5993 12.6999 46.2909 12.5713 46.0634 12.3424V12.3424ZM47.6064 10.7866C47.4707 10.6498 47.2978 10.5566 47.1095 10.5189C46.9212 10.4811 46.7261 10.5005 46.5487 10.5745C46.3714 10.6485 46.2198 10.7738 46.1131 10.9346C46.0065 11.0955 45.9496 11.2846 45.9496 11.478C45.9496 11.6714 46.0065 11.8605 46.1131 12.0214C46.2198 12.1822 46.3714 12.3075 46.5487 12.3815C46.7261 12.4555 46.9212 12.4749 47.1095 12.4371C47.2978 12.3993 47.4707 12.3062 47.6064 12.1694C47.7881 11.9859 47.8901 11.7372 47.8901 11.478C47.8901 11.2188 47.7881 10.9701 47.6064 10.7866V10.7866Z" fill="#204289"/>
<path d="M51.2412 7.12363C51.0716 6.95275 50.9561 6.73502 50.9093 6.49798C50.8625 6.26093 50.8865 6.01523 50.9783 5.79193C51.07 5.56864 51.2255 5.37778 51.4249 5.2435C51.6243 5.10922 51.8588 5.03755 52.0986 5.03755C52.3385 5.03755 52.5729 5.10922 52.7723 5.2435C52.9718 5.37778 53.1272 5.56864 53.219 5.79193C53.3107 6.01523 53.3347 6.26093 53.2879 6.49798C53.2411 6.73502 53.1256 6.95275 52.956 7.12363C52.7284 7.35228 52.42 7.48068 52.0986 7.48068C51.7772 7.48068 51.4689 7.35228 51.2412 7.12363V7.12363ZM52.7842 5.56782C52.6486 5.43133 52.4758 5.33843 52.2878 5.30086C52.0998 5.26328 51.9049 5.28271 51.7278 5.3567C51.5507 5.4307 51.3994 5.55592 51.2929 5.71655C51.1865 5.87719 51.1297 6.06602 51.1297 6.25919C51.1297 6.45235 51.1865 6.64119 51.2929 6.80182C51.3994 6.96245 51.5507 7.08768 51.7278 7.16167C51.9049 7.23566 52.0998 7.25509 52.2878 7.21752C52.4758 7.17994 52.6486 7.08704 52.7842 6.95055C52.9659 6.76721 53.0679 6.51873 53.0679 6.25966C53.0679 6.00059 52.9659 5.75211 52.7842 5.56876V5.56782Z" fill="#204289"/>
<path d="M86.7514 14.8421L84.5795 13.2267L83.9845 13.7885L76.3999 5.62832L76.1925 5.8241L75.5468 5.1299L76.521 4.20965L74.3839 1.91045L73.8489 2.4155L73.2032 1.7213L75.0268 -3.05176e-05L75.6725 0.69512L75.1375 1.20017L77.2747 3.49937L78.2451 2.58385L78.8899 3.279L78.6825 3.47478L86.2671 11.6359L85.672 12.1977L87.1296 14.4865C87.1638 14.5392 87.1785 14.6024 87.171 14.6649C87.1635 14.7275 87.1344 14.7853 87.0888 14.8284C87.0432 14.8714 86.984 14.8969 86.9216 14.9002C86.8591 14.9036 86.7976 14.8847 86.7476 14.8469L86.7514 14.8421ZM84.5542 12.7926L86.6622 14.3607L85.2478 12.1363L85.8025 11.6123L78.2179 3.45208L78.4253 3.25536L78.2329 3.04917L77.2587 3.96847L74.6683 1.18125L75.2032 0.676205L75.0155 0.470024L73.6724 1.73264L73.8602 1.93977L74.3961 1.43472L76.9856 4.22195L76.0113 5.14124L76.1991 5.34743L76.4065 5.15165L83.991 13.3128L84.5542 12.7926Z" fill="#204289"/>
<path d="M8.88483 28.015H2.05207C1.68606 28.0145 1.33518 27.8678 1.07637 27.607C0.817555 27.3462 0.671937 26.9926 0.67144 26.6238V16.6817H10.2617V26.6238C10.2612 26.992 10.1161 27.345 9.85811 27.6057C9.60011 27.8664 9.25019 28.0135 8.88483 28.015V28.015ZM0.907021 16.9144V26.6238C0.90727 26.9307 1.02839 27.225 1.24377 27.4421C1.45916 27.6591 1.75122 27.7812 2.05583 27.7814H8.88483C9.18952 27.7812 9.48168 27.6592 9.69722 27.4421C9.91275 27.2251 10.0341 26.9308 10.0346 26.6238V16.9144H0.907021Z" fill="#204289"/>
<path d="M10.9337 16.9144H0.000312805V14.8961H10.9337V16.9144ZM0.234015 16.6818H10.7018V15.1288H0.231199L0.234015 16.6818Z" fill="#204289"/>
<path d="M10.2617 26.3002H0.67144V18.8777H10.2617V26.3002ZM0.907021 26.0666H10.0346V19.1104H0.907021V26.0666Z" fill="#204289"/>
<path d="M7.76537 76.8051H6.35001C5.38989 76.8039 4.46945 76.4189 3.79063 75.7347C3.1118 75.0505 2.73002 74.1229 2.72903 73.1554V66.9368C2.73002 65.9693 3.1118 65.0417 3.79063 64.3575C4.46945 63.6733 5.38989 63.2883 6.35001 63.2871H7.76913C8.72941 63.2881 9.65009 63.6729 10.3291 64.3572C11.0081 65.0414 11.3901 65.9692 11.3911 66.9368V73.1554C11.3901 74.1237 11.0076 75.052 10.3278 75.7364C9.64795 76.4207 8.72631 76.8051 7.76537 76.8051V76.8051ZM6.35001 63.4715C5.43834 63.4728 4.56436 63.8383 3.91971 64.4879C3.27506 65.1375 2.91235 66.0182 2.91111 66.9368V73.1554C2.9121 74.0742 3.2747 74.9552 3.91938 75.605C4.56406 76.2548 5.43818 76.6204 6.35001 76.6217H7.76913C8.68104 76.6207 9.5553 76.2551 10.2 75.6052C10.8448 74.9554 11.2073 74.0743 11.208 73.1554V66.9368C11.207 66.0181 10.8444 65.1372 10.1997 64.4876C9.555 63.8379 8.68087 63.4725 7.76913 63.4715H6.35001Z" fill="#204289"/>
<path d="M8.82031 63.4714H5.29317V60.9973H8.82031V63.4714ZM5.4762 63.287H8.63823V61.1807H5.4762V63.287Z" fill="#204289"/>
<path d="M11.3881 73.248H2.72603V66.845H11.3881V73.248ZM2.90811 73.0635H11.205V67.0285H2.90811V73.0635Z" fill="#204289"/>
<path d="M116.981 37.0558H104.433V39.1535H116.981V37.0558Z" fill="white"/>
<g style="mix-blend-mode:hard-light">
<path d="M130.038 26.1934H19.5105C15.9986 26.1934 13.1517 29.0622 13.1517 32.6011V65.8964C13.1517 69.4353 15.9986 72.3041 19.5105 72.3041H130.038C133.55 72.3041 136.397 69.4353 136.397 65.8964V32.6011C136.397 29.0622 133.55 26.1934 130.038 26.1934Z" fill="#F5F5F5"/>
</g>
<path d="M125.886 39.4306H110.824V40.9534H125.886V39.4306Z" fill="#B8D6FF"/>
<path d="M128.136 44.1444H110.824V45.6672H128.136V44.1444Z" fill="#B8D6FF"/>
<path d="M119.755 48.8326H110.798V50.3553H119.755V48.8326Z" fill="#B8D6FF"/>
<path d="M124.598 53.5209H110.798V55.0436H124.598V53.5209Z" fill="#B8D6FF"/>
<path d="M42.6589 68.068H29.2337V69.7345H42.6589V68.068Z" fill="#D6D6D6"/>
<path d="M45.9165 65.0991H25.9776V66.7655H45.9165V65.0991Z" fill="#D6D6D6"/>
<path d="M39.4009 42.7838C39.7076 40.8797 38.4244 39.0856 36.5349 38.7765C34.6453 38.4674 32.8649 39.7604 32.5582 41.6645C32.2515 43.5686 33.5346 45.3627 35.4242 45.6718C37.3137 45.9809 39.0942 44.6879 39.4009 42.7838Z" fill="url(#paint0_linear_2_2)"/>
<path d="M42.2294 53.6088V60.252C40.255 61.1515 38.113 61.6168 35.9462 61.6168C33.7793 61.6168 31.6374 61.1515 29.6629 60.252V53.6088C29.6528 52.7708 29.8078 51.9392 30.119 51.162C30.4302 50.3848 30.8914 49.6777 31.4759 49.0815C32.0603 48.4853 32.7564 48.0119 33.5238 47.6889C34.2912 47.3658 35.1145 47.1994 35.9462 47.1994C36.7778 47.1994 37.6012 47.3658 38.3686 47.6889C39.1359 48.0119 39.832 48.4853 40.4165 49.0815C41.001 49.6777 41.4622 50.3848 41.7734 51.162C42.0846 51.9392 42.2396 52.7708 42.2294 53.6088V53.6088Z" fill="url(#paint1_linear_2_2)"/>
<path d="M89.9277 37.0558H57.6392V39.1535H89.9277V37.0558Z" fill="white"/>
<path d="M72.8008 32.2795H57.6392V34.3763H72.8008V32.2795Z" fill="white"/>
<path d="M35.9463 62.0319C33.7198 62.0377 31.5182 61.5596 29.4917 60.6303C26.7636 59.3756 24.4505 57.3578 22.8273 54.8169C21.204 52.276 20.339 49.3188 20.3351 46.297C20.3351 37.6203 27.3396 30.561 35.951 30.561C44.5623 30.561 51.5659 37.6203 51.5659 46.297C51.5615 49.3193 50.6958 52.2769 49.0717 54.8178C47.4477 57.3588 45.1335 59.3763 42.4045 60.6303C40.3769 61.5602 38.174 62.0383 35.9463 62.0319V62.0319ZM35.9463 31.3886C27.7901 31.3886 21.1545 38.0753 21.1545 46.2941C21.1579 49.1576 21.9777 51.9599 23.5163 54.3673C25.055 56.7748 27.2476 58.686 29.8334 59.8737C31.7541 60.7489 33.8378 61.2016 35.9458 61.2016C38.0538 61.2016 40.1375 60.7489 42.0582 59.8737C44.6435 58.6862 46.8359 56.7754 48.3745 54.3685C49.9131 51.9616 50.7332 49.16 50.7371 46.297C50.7371 38.0781 44.1015 31.3914 35.9463 31.3914V31.3886Z" fill="url(#paint2_linear_2_2)"/>
<path d="M72.1219 43.1276H71.2978V63.2728H72.1219V43.1276Z" fill="#C9E0FF"/>
<path d="M75.9093 43.1276H75.0853V63.2728H75.9093V43.1276Z" fill="#C9E0FF"/>
<path d="M79.6976 43.1276H78.8735V63.2728H79.6976V43.1276Z" fill="#C9E0FF"/>
<path d="M83.4859 43.1276H82.6618V63.2728H83.4859V43.1276Z" fill="#C9E0FF"/>
<path d="M87.2741 43.1276H86.45V63.2728H87.2741V43.1276Z" fill="#C9E0FF"/>
<path d="M91.0616 43.1276H90.2375V63.2728H91.0616V43.1276Z" fill="#C9E0FF"/>
<path d="M94.8506 43.1276H94.0265V63.2728H94.8506V43.1276Z" fill="#C9E0FF"/>
<path d="M98.6388 43.1276H97.8148V63.2728H98.6388V43.1276Z" fill="#C9E0FF"/>
<path d="M102.427 43.1276H101.603V63.2728H102.427V43.1276Z" fill="#C9E0FF"/>
<path d="M72.1219 58.2536H71.2978V63.2729H72.1219V58.2536Z" fill="#F46524"/>
<path d="M75.9093 53.2002H75.0853V63.2728H75.9093V53.2002Z" fill="#F46524"/>
<path d="M79.6976 49.4266H78.8735V63.2719H79.6976V49.4266Z" fill="#F46524"/>
<path d="M83.4859 54.3418H82.6618V63.2719H83.4859V54.3418Z" fill="#F46524"/>
<path d="M87.2741 48.1459H86.45V63.2718H87.2741V48.1459Z" fill="#F46524"/>
<path d="M91.0616 54.9651H90.2375V63.2719H91.0616V54.9651Z" fill="#F46524"/>
<path d="M94.8506 49.9808H94.0265V63.2719H94.8506V49.9808Z" fill="#F46524"/>
<path d="M98.6388 56.6269H97.8148V63.2729H98.6388V56.6269Z" fill="#F46524"/>
<path d="M102.427 49.9808H101.603V63.2719H102.427V49.9808Z" fill="#F46524"/>
<path d="M145 66.7722L142.25 64.0001H126.985V50.8424H145V66.7722Z" fill="url(#paint3_linear_2_2)"/>
<g opacity="0.9">
<path opacity="0.9" d="M75.4687 115.433H47.4188C47.4863 114.73 47.5539 114.043 47.6205 113.352C47.9237 110.318 48.2513 107.419 48.5713 104.961C48.6135 104.648 48.866 103.944 48.9073 103.656C49.1344 101.944 49.37 100.724 49.4545 100.114C49.4996 99.8648 49.5585 99.6185 49.631 99.3761C49.9341 99.2324 49.6225 99.2664 49.9679 99.1472C58.0837 96.2068 73.7277 99.3175 73.7277 99.3175C73.7277 99.3175 73.7361 99.3931 73.7615 99.5369C73.7774 99.7157 73.8112 99.9947 73.8553 100.351C73.9492 101.131 74.0825 102.283 74.2308 103.631V103.656C74.2392 103.699 74.2392 103.741 74.2477 103.783C74.5931 106.801 75.0304 110.708 75.2913 113.352C75.3674 114.196 75.4349 114.916 75.4687 115.433Z" fill="#2F4563"/>
<path opacity="0.9" d="M49.2425 100.529L49.0228 100.506C49.0285 100.454 49.5466 95.2799 49.3607 93.6863L49.5794 93.6608C49.7709 95.278 49.2669 100.315 49.2425 100.529Z" fill="#E0A05F"/>
<path opacity="0.9" d="M82.6708 74.2854L76.6086 74.7904C76.542 74.0263 76.4951 73.5089 76.4951 73.5089C76.4951 73.5089 74.7362 93.2673 74.7362 96.3184C74.7362 99.3695 74.4274 106.895 74.4274 106.895C74.4274 106.895 72.0153 110.592 60.2973 110.121C60.2973 110.121 48.096 108.779 48.6844 103.296C50.4733 86.5825 49.2617 74.4764 48.966 74.328C48.8722 74.2778 48.5652 75.2652 48.2236 76.6527L40.9826 76.2129C42.3294 68.9606 44.7443 59.2541 46.4798 58.4738C48.2931 57.6604 54.0652 55.8511 57.7923 54.7115C59.7229 54.1213 61.1045 53.7108 61.1045 53.7108H67.8068C67.8068 53.7108 68.2441 53.8518 68.9612 54.1052C71.8886 55.1456 79.4685 58.0491 80.8256 60.8553C81.7632 62.7875 82.2494 68.6315 82.6708 74.2854Z" fill="#3A7EB8"/>
<path opacity="0.9" d="M75.5603 97.4571C75.4852 99.0337 76.0484 105.932 76.7298 113.357C76.7973 114.043 76.864 114.738 76.9231 115.437H69.4709C69.4456 114.752 69.4127 114.057 69.3874 113.357C68.7398 97.9063 67.9664 80.4897 67.6886 77.1842C67.1667 71.0225 68.9669 54.1071 68.9669 54.1071C72.6273 54.895 77.184 57.7172 77.184 57.7172L76.9963 72.8034C76.9963 72.8034 75.7368 93.7449 75.5603 97.4571Z" fill="#DBDFF0"/>
<path opacity="0.9" d="M76.4955 73.509C76.4955 73.509 76.6982 80.3252 76.5152 80.9107C76.3322 81.4961 75.1318 81.6266 75.1318 81.6266L74.6813 88.6122C74.6813 88.6122 81.59 87.7345 83.0842 85.754C84.5784 83.7735 83.0204 69.6246 82.5511 66.46C82.0818 63.2954 81.8566 60.3465 79.8772 58.9884C77.8977 57.6302 74.3903 56.2692 74.3903 56.2692L76.4955 73.509Z" fill="#DBDFF0"/>
<path opacity="0.9" d="M57.7974 73.472C57.7974 73.472 56.1662 94.9224 54.5012 113.357C54.4421 114.052 54.3745 114.747 54.3135 115.437H46.3732C46.4671 114.752 46.5496 114.057 46.6426 113.357C47.675 105.153 48.6445 97.2783 48.7872 95.33C49.1148 90.9312 48.9636 74.328 48.9636 74.328L50.1838 57.1232C50.1838 57.1232 55.0531 55.2931 57.7946 54.7077C57.7974 54.7077 58.202 67.4294 57.7974 73.472Z" fill="#DBDFF0"/>
<path opacity="0.9" d="M50.6754 56.9416C50.6754 56.9416 45.853 57.5441 45.0918 59.9681C44.3306 62.3922 41.483 71.6769 40.7012 76.2053C39.9194 80.7337 38.3633 86.6175 38.3633 86.6175L43.8952 91.0257C43.8952 91.0257 46.7531 87.0818 47.6278 81.3268C48.5026 75.5717 49.6382 73.0322 49.6382 73.0322L50.6754 56.9416Z" fill="#DBDFF0"/>
<path opacity="0.9" d="M39.4409 92.7433C39.4409 92.7433 38.6722 95.0491 38.0988 95.2478C37.5253 95.4464 36.9012 96.2531 36.4206 96.5312C35.9401 96.8092 34.367 97.0987 33.9803 97.5574C33.8236 97.7465 33.3065 99.2853 32.9479 99.6381C32.5894 99.9909 31.7785 100.606 32.0797 100.908C32.381 101.211 33.2539 100.858 33.2539 100.858C33.2539 100.858 32.9451 101.196 33.1281 101.547C33.4838 102.229 33.9606 102.209 33.9606 102.209C33.9606 102.209 33.8668 102.759 34.0826 103.004C34.5651 103.544 35.0259 103.513 35.0259 103.513C35.1004 103.794 35.2717 104.04 35.5093 104.206C36.0227 104.569 36.5802 104.273 36.5802 104.273C36.5802 104.273 37.118 104.88 37.5394 104.707C37.9608 104.535 38.1804 104.181 38.4714 103.957C38.7623 103.732 40.6742 100.992 41.2336 98.5561C41.793 96.1198 42.9859 94.0627 42.9859 94.0627L39.4409 92.7433Z" fill="#EEA987"/>
<path opacity="0.9" d="M45.3062 107.329L52.7678 94.7456L34.9801 82.335L26.5161 94.6519L45.3062 107.329Z" fill="#285173"/>
<path opacity="0.9" d="M44.7928 105.966L51.3215 94.7399L35.4935 83.6969L27.9624 94.6576L44.7928 105.966Z" fill="#EDE5DF"/>
<path opacity="0.9" d="M33.3478 100.55C33.3478 100.55 35.0232 98.2355 35.9693 98.1778C36.9153 98.1201 36.3559 98.9884 36.3559 98.9884C36.3559 98.9884 36.8947 98.1201 37.6099 98.4757C38.3251 98.8314 37.6164 99.814 37.6164 99.814C37.6164 99.814 38.1965 99.2655 38.7606 99.8831C39.3246 100.501 38.5597 101.182 38.5597 101.182C38.5597 101.182 39.7892 100.867 39.6268 101.92C39.3537 103.701 37.6042 104.728 37.6042 104.728C37.6042 104.728 37.0608 104.963 36.5587 104.329C36.5587 104.329 35.4662 104.897 35.0053 103.573C35.0053 103.573 33.5975 103.402 33.9157 102.259C33.9147 102.257 32.4421 101.882 33.3478 100.55Z" fill="#DB9C7C"/>
<path opacity="0.9" d="M56.9173 85.5865C56.9173 85.5865 56.402 85.4759 54.8778 86.154C52.8533 87.0544 50.3801 88.456 50.2731 88.9677C50.1192 89.7054 50.7171 89.7754 51.8565 89.0831C52.9959 88.3908 53.3676 88.161 53.3676 88.161C53.3676 88.161 51.5787 89.8936 51.4417 90.5112C51.3046 91.1288 51.8021 91.6008 52.1512 91.3624C52.5004 91.1241 53.1743 90.4412 53.1743 90.4412C53.1743 90.4412 52.5173 91.2679 52.7716 91.6244C52.9593 91.8883 53.2709 92.2099 54.0574 91.5733C54.0574 91.5733 54.1842 92.5787 55.2044 92.1209C56.2246 91.6632 57.746 90.5557 58.4584 89.9542C59.403 89.1661 60.4207 88.4715 61.4974 87.8801L60.6584 85.7048C60.6584 85.7048 58.6977 85.2404 57.9647 85.3756C57.3227 85.4957 56.9173 85.5865 56.9173 85.5865Z" fill="#EEA886"/>
<path opacity="0.9" d="M53.039 87.4993L49.1393 92.9561L49.597 93.2882L53.4968 87.8315L53.039 87.4993Z" fill="#F46524"/>
<path opacity="0.9" d="M53.3721 88.161C53.3721 88.161 51.1336 89.6742 50.548 89.5569C49.9623 89.4396 50.0965 88.84 50.9919 88.265C51.8873 87.69 53.4453 86.8397 53.4453 86.8397C53.4453 86.8397 54.1126 87.5292 53.3721 88.161Z" fill="#EEA886"/>
<path opacity="0.9" d="M59.2916 84.3939C59.2916 84.3939 74.6926 81.2728 75.8339 81.6426L76.0873 88.3577C76.0873 88.3577 70.0223 89.7934 59.8182 88.7918L59.2916 84.3939Z" fill="#DBDFF0"/>
<path opacity="0.9" d="M49.5961 93.2834L48.7936 93.9199L49.1381 92.9505L49.5961 93.2834Z" fill="#F46524"/>
<path opacity="0.9" d="M34.4052 94.041C33.0236 93.2749 32.5328 91.6416 33.309 90.3931C34.0852 89.1447 35.8347 88.7541 37.2162 89.5202C38.5978 90.2862 39.0934 91.9206 38.3125 93.169C37.5316 94.4174 35.7868 94.809 34.4052 94.041Z" fill="#204289"/>
<path opacity="0.9" d="M34.0717 91.2812L34.6592 90.4508L37.5509 92.2818L36.9643 93.1122L34.0717 91.2812Z" fill="#EDE5DF"/>
<path opacity="0.9" d="M36.2694 90.1888L37.193 90.7732L35.3534 93.3751L34.4298 92.7906L36.2694 90.1888Z" fill="#EDE5DF"/>
<path opacity="0.9" d="M43.8737 103.178L42.7784 102.441L45.5641 97.8449L46.559 98.5599L43.8737 103.178Z" fill="#C7C0BB"/>
<path opacity="0.9" d="M47.0927 97.9224L45.9965 97.1856L47.7995 94.3029L48.7944 95.0179L47.0927 97.9224Z" fill="#C7C0BB"/>
<path opacity="0.9" d="M75.9922 69.3919L74.6172 81.671C74.6172 81.671 76.1433 81.7344 76.7759 81.1452C77.4085 80.5559 75.9922 69.3919 75.9922 69.3919Z" fill="#A9ADBA"/>
<path opacity="0.9" d="M59.8317 70.5657L59.7567 70.0332C60.3336 69.9498 60.8542 69.6392 61.2042 69.1695C61.5541 68.6998 61.7049 68.1094 61.6235 67.5278L60.7788 61.5155C60.696 60.9338 60.3876 60.409 59.9214 60.0562C59.4551 59.7033 58.869 59.5513 58.2916 59.6334L55.8729 59.9805L55.7978 59.4489L58.2165 59.1018C58.9337 59 59.6617 59.189 60.2409 59.6272C60.8201 60.0655 61.2032 60.7173 61.3062 61.4398L62.1509 67.4521C62.252 68.1748 62.0646 68.9083 61.6299 69.4919C61.1952 70.0755 60.5485 70.4616 59.8317 70.5657V70.5657Z" fill="#2F4563"/>
<path opacity="0.9" d="M54.4208 71.3422C53.7037 71.444 52.9758 71.255 52.3967 70.8167C51.8177 70.3784 51.4348 69.7266 51.332 69.0042L50.4873 62.9919C50.3863 62.2691 50.5738 61.5355 51.0087 60.9518C51.4436 60.3682 52.0905 59.9821 52.8074 59.8783L55.7987 59.4499L55.8737 59.9814L52.8825 60.4108C52.3054 60.494 51.7846 60.8045 51.4344 61.2742C51.0842 61.744 50.9333 62.3345 51.0148 62.9162L51.8642 68.9285C51.9472 69.51 52.2556 70.0346 52.7219 70.3872C53.1881 70.7399 53.7741 70.8918 54.3514 70.8097L54.4208 71.3422Z" fill="#2F4563"/>
<path opacity="0.9" d="M60.2771 70.2299C60.2905 70.3242 60.2758 70.4204 60.2349 70.5063C60.194 70.5922 60.1288 70.6639 60.0475 70.7124C59.9661 70.7609 59.8723 70.784 59.7779 70.7787C59.6836 70.7735 59.5928 70.7401 59.5173 70.6829C59.4417 70.6257 59.3847 70.5472 59.3534 70.4573C59.3221 70.3674 59.318 70.2702 59.3416 70.178C59.3652 70.0857 59.4154 70.0026 59.4858 69.9391C59.5563 69.8757 59.6439 69.8347 59.7375 69.8214C59.8627 69.8038 59.9898 69.8369 60.0909 69.9135C60.1921 69.99 60.259 70.1038 60.2771 70.2299V70.2299Z" fill="#204289"/>
<path opacity="0.9" d="M54.8562 71.0074C54.8696 71.1017 54.8549 71.1978 54.814 71.2837C54.7731 71.3696 54.7079 71.4413 54.6265 71.4898C54.5452 71.5383 54.4514 71.5614 54.357 71.5562C54.2626 71.5509 54.1719 71.5176 54.0963 71.4604C54.0207 71.4032 53.9637 71.3246 53.9324 71.2348C53.9011 71.1449 53.897 71.0477 53.9206 70.9554C53.9442 70.8632 53.9944 70.7801 54.0649 70.7166C54.1353 70.6531 54.2229 70.6121 54.3165 70.5988C54.3786 70.5899 54.4418 70.5933 54.5025 70.609C54.5633 70.6247 54.6203 70.6523 54.6705 70.6903C54.7206 70.7282 54.7628 70.7758 54.7947 70.8302C54.8265 70.8846 54.8475 70.9448 54.8562 71.0074V71.0074Z" fill="#204289"/>
<path opacity="0.9" d="M69.5159 75.3258L68.9968 75.1773C69.0156 75.112 70.8449 68.5284 70.7998 60.3871C70.7829 57.2793 70.2526 55.3527 69.1311 54.3228C67.6294 52.9495 65.1468 53.1689 61.7033 53.4716L61.1007 53.5245C59.3174 53.6787 57.9621 54.3228 57.0649 55.4379C55.5416 57.3247 55.8344 59.9625 55.8382 59.989L55.3022 60.0542C55.2882 59.9379 54.9756 57.1677 56.6434 55.0983C57.6393 53.8622 59.1241 53.151 61.0547 52.9826L61.6573 52.9297C65.1027 52.6251 67.8236 52.3849 69.4952 53.9189C70.736 55.0539 71.3217 57.1119 71.3404 60.3824C71.3874 68.6069 69.5375 75.2596 69.5159 75.3258Z" fill="#2F4563"/>
<path d="M67.6905 48.8013C67.6905 48.8013 67.5187 52.8606 67.9082 53.7393C68.2978 54.6179 62.7461 57.4392 59.356 54.2945C59.356 54.2945 60.1745 49.8843 59.9473 48.3209C59.7202 46.7575 67.6905 48.8013 67.6905 48.8013Z" fill="#EEA987"/>
<path d="M64.4158 31.4027C64.4158 31.4027 70.6198 32.27 69.8971 42.2716C69.1744 52.2733 63.6969 51.5753 63.3355 51.5753C62.9742 51.5753 57.8628 51.8789 57.1973 39.7019C57.1973 39.701 56.8256 30.6943 64.4158 31.4027Z" fill="#EEA886"/>
<path opacity="0.9" d="M69.9312 39.4504C69.9312 39.4504 70.5882 38.6937 70.8566 39.439C71.125 40.1843 70.0626 43.4671 69.9847 43.7423C69.9847 43.7423 69.8674 44.0383 69.7031 43.8804C69.5389 43.7224 69.9312 39.4504 69.9312 39.4504Z" fill="#EEA886"/>
<path opacity="0.9" d="M57.3446 39.6036C57.3446 39.6036 56.666 38.8593 56.4191 39.615C56.1723 40.3706 57.3418 43.7698 57.399 43.8956C57.399 43.8956 57.5229 44.1888 57.6806 44.027C57.8383 43.8653 57.3446 39.6036 57.3446 39.6036Z" fill="#EEA886"/>
<path opacity="0.9" d="M69.9606 40.9825L69.1027 42.2224C69.1027 42.2224 69.0689 39.5459 68.915 39.1288C68.7611 38.7117 69.0417 37.2438 68.915 36.944C68.7883 36.6442 64.7055 37.8614 57.9507 37.3223C57.9507 37.3223 58.7531 39.718 58.3177 39.8987C57.8822 40.0793 58.1628 43.0387 58.1628 43.0387L57.4166 42.2073C57.4166 42.2073 56.4837 37.1634 56.5447 36.316C56.6264 35.1896 56.1336 29.9452 65.6357 30.6357C66.7283 30.7101 67.7768 31.0987 68.6569 31.7555C69.648 32.4998 70.6767 33.6745 70.6213 35.3192C70.5481 37.4888 69.9606 40.9825 69.9606 40.9825Z" fill="#E8734D"/>
<path opacity="0.9" d="M60.6339 49.9967C60.6339 49.9967 63.2037 52.888 67.1147 49.853C67.1147 49.853 66.0494 52.1134 63.7133 52.2174C61.3772 52.3215 60.6339 49.9967 60.6339 49.9967Z" fill="#A77860"/>
<path opacity="0.9" d="M70.1287 75.9739C70.8548 75.2422 70.8548 74.0559 70.1287 73.3242C69.4026 72.5925 68.2254 72.5925 67.4993 73.3242C66.7732 74.0559 66.7732 75.2422 67.4993 75.9739C68.2254 76.7056 69.4026 76.7056 70.1287 75.9739Z" fill="#204289"/>
<path opacity="0.9" d="M69.8028 74.6524C69.8026 74.8495 69.7444 75.0421 69.6356 75.2059C69.5268 75.3697 69.3722 75.4974 69.1915 75.5727C69.0107 75.648 68.8118 75.6676 68.62 75.629C68.4282 75.5904 68.252 75.4954 68.1137 75.356C67.9755 75.2165 67.8813 75.0389 67.8432 74.8456C67.8052 74.6522 67.8248 74.4518 67.8997 74.2697C67.9746 74.0876 68.1014 73.932 68.2641 73.8225C68.4267 73.713 68.6179 73.6545 68.8136 73.6545C68.9435 73.6545 69.0723 73.6804 69.1923 73.7305C69.3124 73.7807 69.4215 73.8542 69.5134 73.9469C69.6053 74.0395 69.6781 74.1495 69.7278 74.2706C69.7774 74.3916 69.8029 74.5214 69.8028 74.6524V74.6524Z" fill="#537BB0"/>
<path opacity="0.9" d="M30.3131 92.1778L34.0486 86.609L32.6923 85.6632L28.8029 91.3237L30.3131 92.1778Z" fill="#285173"/>
<path opacity="0.9" d="M101.81 112.15H40.3091V115.433H101.81V112.15Z" fill="#5577FF"/>
</g>
<path d="M83.8141 112.098H100.969V111.072H83.8141V112.098Z" fill="#E2D2CA"/>
<path d="M98.6698 114.768H97.1662V161.438H98.6698V114.768Z" fill="#706865"/>
<path d="M74.5737 112.246H86.4982V110.78H74.5737V112.246Z" fill="#CCBDB7"/>
<path d="M78.2792 112.098H82.7946V98.2772H78.2792V112.098Z" fill="#998E89"/>
<path d="M25.8419 115.433L107.124 115.433V112.114L25.8419 112.114V115.433Z" fill="url(#paint4_linear_2_2)"/>
<path d="M119.803 96.0537C119.803 96.0537 120.526 106.268 118.546 107.487C117.306 108.252 112.36 110.835 112.507 111.32C112.653 111.804 115.299 115.628 115.299 115.628C115.299 115.628 124.799 109.324 125.105 107.338C125.404 105.397 124.636 92.3859 123.332 91.7863C122.354 91.338 121.838 91.7087 120.606 92.6309C118.876 93.9247 119.803 96.0537 119.803 96.0537Z" fill="#F46524"/>
<path d="M108.116 155.066C108.116 155.066 108.411 157.131 108.449 157.442C108.486 157.752 111.734 157.259 111.734 157.259L111.996 154.8C111.996 154.8 108.522 154.774 108.116 155.066Z" fill="#424773"/>
<path d="M108.413 157.18C108.413 157.18 107.381 158.424 106.388 158.967C105.395 159.51 103.827 159.724 103.239 160.291C102.814 160.696 101.69 162.442 105.827 162.407C109.963 162.372 111.955 162.654 112.397 161.984C112.838 161.315 111.756 157.044 111.756 157.044C111.756 157.044 110.778 157.394 108.413 157.18Z" fill="#292C47"/>
<path d="M87.2982 155.085C87.2982 155.085 87.5929 157.151 87.6304 157.461C87.668 157.772 90.9154 157.279 90.9154 157.279L91.1782 154.82C91.1782 154.82 87.7036 154.793 87.2982 155.085Z" fill="#424773"/>
<path d="M87.5953 157.198C87.5953 157.198 86.5629 158.444 85.5699 158.986C84.5769 159.528 80.9099 159.975 80.3214 160.537C79.8963 160.942 79.1895 162.574 85.0077 162.422C89.1374 162.313 91.1375 162.668 91.5776 161.999C92.0178 161.331 90.9366 157.059 90.9366 157.059C90.9366 157.059 90.0168 157.438 87.5953 157.198Z" fill="#292C47"/>
<path d="M118.596 119.374C118.596 119.374 106.782 121.388 104.114 121.811C101.447 122.234 86.9791 125.861 85.1705 126.966C83.7298 127.845 85.9213 148.977 86.4385 157.041H92.1356L92.5486 132.857C99.3869 133.029 104.266 131.249 109.245 132.006C114.224 132.762 118.375 133.851 121.54 129.574C121.541 129.574 121.658 120.308 118.596 119.374Z" fill="#292C47"/>
<path d="M106.952 157.059L112.504 156.713L113.046 132.855C115.989 132.929 116.998 132.742 119.38 132.45L123.864 121.952C119.935 122.744 107.345 125.943 105.667 126.965C104.227 127.846 106.439 148.997 106.952 157.059Z" fill="#292C47"/>
<path d="M113.159 74.7546C113.159 74.7546 108.829 73.5488 107.177 76.9356C105.525 80.3224 106.273 86.7452 108.456 87.3496C110.639 87.954 113.777 87.255 114.682 85.1497C115.588 83.0444 116.312 80.0425 116.09 78.1055C115.869 76.1686 114.307 75.22 113.159 74.7546Z" fill="#EEA886"/>
<path d="M109.586 86.6734C109.586 86.6734 109.633 89.2497 109.352 89.7992C109.07 90.3488 115.381 90.2107 115.381 90.2107C115.381 90.2107 114.387 87.117 114.951 84.4811C115.506 81.8726 109.586 86.6734 109.586 86.6734Z" fill="#EEA886"/>
<path d="M115.291 83.506C115.291 83.506 114.954 84.1973 113.32 84.0857C111.686 83.9741 109.531 81.988 108.837 81.8102C108.144 81.6324 108.102 81.2352 108.102 81.2352L107.735 81.8925L107.025 82.0012C107.025 82.0012 107.508 80.0151 106.456 79.3095C105.404 78.604 106.925 72.9643 112.256 74.3253C112.256 74.3253 116.323 75.0762 116.378 77.3631C116.432 79.65 116.08 82.2935 115.291 83.506Z" fill="#3A3F47"/>
<path d="M109.02 89.733C109.02 89.733 109.037 88.6831 109.51 88.5829C109.982 88.4826 114.471 87.8603 115.047 88.0892L115.296 89.4748C115.296 89.4748 114.183 90.1633 109.02 89.733Z" fill="#E2D2CA"/>
<path d="M107.72 80.7661C107.841 79.9054 108.812 78.918 109.368 80.2572C109.923 81.5964 108.992 83.5476 108.369 83.4436C107.746 83.3395 107.556 81.935 107.72 80.7661Z" fill="#EEA886"/>
<path d="M90.2174 102.131H90.2256C90.1907 102.147 90.1856 102.148 90.2174 102.131Z" fill="#323657"/>
<path d="M114.421 75.3684C114.421 75.3684 119.701 75.1187 115.342 83.4246L114.421 75.3684Z" fill="#3A3F47"/>
<path d="M126.185 159.888L125.792 161.002L109.197 155.821L109.992 153.566L126.185 159.888Z" fill="#918783"/>
<path d="M108.627 155.027H110.513V136.845H108.627V155.027Z" fill="#918783"/>
<path d="M104.007 136.951H115.133V135.88H104.007V136.951Z" fill="#5E5854"/>
<path d="M92.8109 159.888L93.2032 161.002L109.799 155.82L109.07 153.424L92.8109 159.888Z" fill="#918783"/>
<path d="M104.503 160.883V162.178L109.798 155.82L109.069 153.424L104.503 160.883Z" fill="#918783"/>
<path d="M92.8102 163C93.6666 163 94.3608 162.3 94.3608 161.438C94.3608 160.575 93.6666 159.875 92.8102 159.875C91.9539 159.875 91.2597 160.575 91.2597 161.438C91.2597 162.3 91.9539 163 92.8102 163Z" fill="#BFB2AC"/>
<path d="M105.922 163C106.778 163 107.472 162.3 107.472 161.438C107.472 160.575 106.778 159.875 105.922 159.875C105.066 159.875 104.371 160.575 104.371 161.438C104.371 162.3 105.066 163 105.922 163Z" fill="#BFB2AC"/>
<path d="M126.185 163C127.041 163 127.735 162.3 127.735 161.438C127.735 160.575 127.041 159.875 126.185 159.875C125.328 159.875 124.634 160.575 124.634 161.438C124.634 162.3 125.328 163 126.185 163Z" fill="#BFB2AC"/>
<path d="M98.1333 135.88H120.862C121.864 135.88 122.676 135.061 122.676 134.051V133.649C122.676 132.64 121.864 131.821 120.862 131.821H98.1333C97.1313 131.821 96.319 132.64 96.319 133.649V134.051C96.319 135.061 97.1313 135.88 98.1333 135.88Z" fill="#E2D2CA"/>
<path d="M32.3332 161.437H33.8368L33.8368 115.434H32.3332L32.3332 161.437Z" fill="black"/>
<path d="M62.8504 104.935H98.2212C99.2212 104.935 100.032 104.118 100.032 103.11V79.0409C100.032 78.0333 99.2212 77.2165 98.2212 77.2165H62.8504C61.8505 77.2165 61.0399 78.0333 61.0399 79.0409V103.11C61.0399 104.118 61.8505 104.935 62.8504 104.935Z" fill="#B8ABA5"/>
<path d="M62.5668 100.591H98.5045V78.7137H62.5668V100.591Z" fill="#F5F7FF"/>
<path d="M64.1663 102.654C64.1663 103.277 64.8148 103.781 65.6154 103.781C66.416 103.781 67.0637 103.277 67.0637 102.654C67.0637 102.032 66.4151 101.528 65.6154 101.528C64.8158 101.528 64.1663 102.032 64.1663 102.654Z" fill="#918681"/>
<path d="M72.4644 112.15V111.656C72.4644 111.656 73.1523 108.589 78.0198 108.589C82.8872 108.589 82.7886 112.15 82.7886 112.15H72.4644Z" fill="#998E89"/>
<path d="M82.8435 109.045C82.8435 109.045 81.7867 108.962 81.399 108.726C81.0114 108.491 78.6931 106.92 78.1488 107.171C77.6044 107.423 73.9815 108.541 74.1073 109.075C74.2331 109.61 74.5681 109.558 74.8234 109.463C75.0787 109.368 77.7105 108.812 77.9423 108.906C77.9423 108.906 75.3584 109.852 75.3481 110.549C75.3378 111.246 75.8887 111.411 76.1337 111.673C76.3786 111.935 76.6733 112.586 77.3388 112.636C78.0042 112.686 81.2545 111.547 81.9237 111.495C82.5929 111.443 83.8309 111.537 83.9153 111.426C83.9998 111.316 82.8435 109.045 82.8435 109.045Z" fill="#EEA886"/>
<path d="M102.099 91.1876C105.471 90.5899 109.019 89.733 109.019 89.733L115.298 89.4748C115.298 89.4748 121.062 90.7535 123.331 91.7863C123.546 91.8809 123.547 96.9673 124.139 98.2999L122.262 102.301C122.262 102.301 121.175 110.224 120.948 113.745C120.844 115.363 121.24 129.38 121.24 129.38C121.24 129.38 120.677 129.664 116.391 130.137C112.104 130.61 101.398 129.965 101.331 129.455C101.263 128.945 103.404 110.463 103.499 109.506C103.644 108.036 103.077 101.248 103.077 101.248C102.27 102.341 100.212 107.277 98.0662 109.626C96.8039 111.007 90.5577 111.854 89.377 111.896C86.8128 111.982 82.135 112.496 81.998 112.245C81.8891 112.094 81.5906 108.06 81.8835 107.962C82.1406 107.876 90.8261 107.372 93.0524 106.182C93.8671 105.747 96.3008 100.399 96.3008 100.399C96.3008 100.399 100.239 92.0294 102.099 91.1876Z" fill="#F46524"/>
<path d="M114.14 128.979H125.349C127.273 128.979 128.832 127.407 128.832 125.469V107.122C128.832 105.183 127.273 103.612 125.349 103.612H114.14C112.216 103.612 110.656 105.183 110.656 107.122V125.469C110.656 127.407 112.216 128.979 114.14 128.979Z" fill="#E2D2CA"/>
<path d="M113.877 134.87C116.557 134.87 118.73 133.963 120.338 132.174C123.972 128.132 123.318 121.026 123.288 120.73C123.275 120.597 123.236 120.468 123.174 120.35C123.111 120.232 123.026 120.127 122.923 120.043C122.821 119.958 122.703 119.894 122.575 119.855C122.448 119.816 122.315 119.803 122.183 119.816C122.051 119.83 121.922 119.869 121.805 119.932C121.688 119.995 121.585 120.081 121.501 120.184C121.416 120.288 121.353 120.407 121.315 120.535C121.276 120.663 121.263 120.797 121.276 120.931C121.284 121.012 121.863 127.457 118.836 130.815C117.616 132.175 115.989 132.836 113.878 132.836C113.743 132.832 113.608 132.855 113.482 132.905C113.356 132.954 113.24 133.028 113.143 133.123C113.046 133.218 112.969 133.332 112.916 133.458C112.863 133.584 112.836 133.719 112.836 133.855C112.836 133.992 112.863 134.127 112.916 134.253C112.969 134.378 113.046 134.492 113.143 134.587C113.24 134.682 113.356 134.756 113.482 134.806C113.608 134.855 113.743 134.878 113.878 134.874L113.877 134.87Z" fill="#E2D2CA"/>
<path d="M85.6897 81.6116H95.6985C95.8416 81.6116 95.9576 81.4947 95.9576 81.3505V80.7169C95.9576 80.5727 95.8416 80.4558 95.6985 80.4558H85.6897C85.5466 80.4558 85.4306 80.5727 85.4306 80.7169V81.3505C85.4306 81.4947 85.5466 81.6116 85.6897 81.6116Z" fill="#DFE1E8"/>
<path d="M85.6897 84.0914H95.6985C95.8416 84.0914 95.9576 83.9745 95.9576 83.8303V83.1966C95.9576 83.0525 95.8416 82.9356 95.6985 82.9356H85.6897C85.5466 82.9356 85.4306 83.0525 85.4306 83.1966V83.8303C85.4306 83.9745 85.5466 84.0914 85.6897 84.0914Z" fill="#DFE1E8"/>
<path d="M86.3035 98.8476H95.0847C95.5668 98.8476 95.9576 98.4538 95.9576 97.968V86.6583C95.9576 86.1725 95.5668 85.7787 95.0847 85.7787H86.3035C85.8214 85.7787 85.4306 86.1725 85.4306 86.6583V97.968C85.4306 98.4538 85.8214 98.8476 86.3035 98.8476Z" fill="#DFE1E8"/>
<path d="M65.9396 98.8476H81.9234C82.6864 98.8476 83.3049 98.2242 83.3049 97.4554V81.8481C83.3049 81.0792 82.6864 80.4559 81.9234 80.4559H65.9396C65.1765 80.4559 64.558 81.0792 64.558 81.8481V97.4554C64.558 98.2242 65.1765 98.8476 65.9396 98.8476Z" fill="#DFE1E8"/>
</g>
<defs>
<linearGradient id="paint0_linear_2_2" x1="35.9816" y1="33.0236" x2="35.9816" y2="70.4133" gradientUnits="userSpaceOnUse">
<stop stop-color="#204289"/>
<stop offset="1" stop-color="#5577FF"/>
</linearGradient>
<linearGradient id="paint1_linear_2_2" x1="10892.1" y1="6951.1" x2="10892.1" y2="12650.7" gradientUnits="userSpaceOnUse">
<stop stop-color="#204289"/>
<stop offset="1" stop-color="#5577FF"/>
</linearGradient>
<linearGradient id="paint2_linear_2_2" x1="35.9463" y1="35.4432" x2="35.9463" y2="68.1852" gradientUnits="userSpaceOnUse">
<stop stop-color="#D3DAE0"/>
<stop offset="1" stop-color="white"/>
</linearGradient>
<linearGradient id="paint3_linear_2_2" x1="25773.7" y1="9318.34" x2="29619.1" y2="13667.3" gradientUnits="userSpaceOnUse">
<stop stop-color="#204289"/>
<stop offset="1" stop-color="#5577FF"/>
</linearGradient>
<linearGradient id="paint4_linear_2_2" x1="870263" y1="4534.82" x2="799871" y2="4534.82" gradientUnits="userSpaceOnUse">
<stop stop-color="#40D5E6"/>
<stop offset="1" stop-color="#5577FF"/>
</linearGradient>
<clipPath id="clip0_2_2">
<rect width="145" height="163" fill="white"/>
</clipPath>
</defs>
</svg>
